Permiso;Grupo;Protection
appperm.permission.TEST_PERMISSION2;appperm.permission-group.TEST_GROUP;Normal
appperm.permission.TEST_PERMISSION3;appperm.permission-group.TEST_GROUP1;Signature
appperm.permission.TEST_PERMISSION1;;Dangerous
appperm.permission.TEST1;;Normal
appperm.permission.TEST2;;Normal
appperm.permission.TEST3;;Signature
appperm.permission.TEST4;;Signature
appperm.permission.TEST5;;Dangerous
android.permission.MANAGE_EXTERNAL_STORAGE;;Signature
android.permission.READ_BASIC_PHONE_STATE;;Normal
android.permission.MANAGE_OWN_CALLS;;Normal
android.permission.CALL_COMPANION_APP;;Normal
android.permission.HIGH_SAMPLING_RATE_SENSORS;;Normal
android.permission.USE_FINGERPRINT;;Normal
android.permission.USE_BIOMETRIC;;Normal
android.permission.READ_PROFILE;;Normal
android.permission.WRITE_PROFILE;;Normal
android.permission.READ_SOCIAL_STREAM;;Normal
android.permission.WRITE_SOCIAL_STREAM;;Normal
android.permission.READ_USER_DICTIONARY;;Normal
android.permission.WRITE_USER_DICTIONARY;;Normal
android.permission.WRITE_SMS;;Normal
com.android.browser.permission.READ_HISTORY_BOOKMARKS;;Normal
com.android.browser.permission.WRITE_HISTORY_BOOKMARKS;;Normal
android.permission.AUTHENTICATE_ACCOUNTS;;Normal
android.permission.MANAGE_ACCOUNTS;;Normal
android.permission.USE_CREDENTIALS;;Normal
android.permission.SUBSCRIBED_FEEDS_READ;;Normal
android.permission.SUBSCRIBED_FEEDS_WRITE;;Normal
android.permission.FLASHLIGHT;;Normal
com.android.alarm.permission.SET_ALARM;;Normal
android.permission.ACCESS_LOCATION_EXTRA_COMMANDS;;Normal
android.permission.INTERNET;;Normal
android.permission.ACCESS_NETWORK_STATE;;Normal
android.permission.ACCESS_WIFI_STATE;;Normal
android.permission.CHANGE_WIFI_STATE;;Normal
android.permission.MANAGE_REMOTE_AUTH;;Signature
android.permission.USE_REMOTE_AUTH;;Signature
android.permission.REGISTER_NSD_OFFLOAD_ENGINE;;Signature
android.permission.BLUETOOTH;;Normal
android.permission.BLUETOOTH_ADMIN;;Normal
android.permission.NFC;;Normal
android.permission.NFC_TRANSACTION_EVENT;;Normal
android.permission.NFC_PREFERRED_PAYMENT_INFO;;Normal
android.permission.CHANGE_WIFI_MULTICAST_STATE;;Normal
android.permission.VIBRATE;;Normal
android.permission.WAKE_LOCK;;Normal
android.permission.TRANSMIT_IR;;Normal
android.permission.MODIFY_AUDIO_SETTINGS;;Normal
android.permission.DETECT_SCREEN_CAPTURE;;Normal
android.permission.BIND_CALL_STREAMING_SERVICE;;Signature
android.permission.BIND_SATELLITE_GATEWAY_SERVICE;;Signature
android.permission.DISABLE_KEYGUARD;;Normal
android.permission.REQUEST_PASSWORD_COMPLEXITY;;Normal
android.permission.GET_TASKS;;Normal
android.permission.MANAGE_SUBSCRIPTION_USER_ASSOCIATION;;Signature
android.permission.REORDER_TASKS;;Normal
android.permission.RESTART_PACKAGES;;Normal
android.permission.KILL_BACKGROUND_PROCESSES;;Normal
android.permission.SYSTEM_ALERT_WINDOW;;Signature
android.permission.REQUEST_COMPANION_RUN_IN_BACKGROUND;;Normal
android.permission.REQUEST_COMPANION_START_FOREGROUND_SERVICES_FROM_BACKGROUND;;Normal
android.permission.REQUEST_COMPANION_USE_DATA_IN_BACKGROUND;;Normal
android.permission.REQUEST_COMPANION_PROFILE_WATCH;;Normal
android.permission.REQUEST_COMPANION_PROFILE_GLASSES;;Normal
android.permission.HIDE_OVERLAY_WINDOWS;;Normal
android.permission.SET_WALLPAPER;;Normal
android.permission.SET_WALLPAPER_HINTS;;Normal
android.permission.EXPAND_STATUS_BAR;;Normal
com.android.launcher.permission.INSTALL_SHORTCUT;;Normal
com.android.launcher.permission.UNINSTALL_SHORTCUT;;Normal
android.permission.READ_SYNC_SETTINGS;;Normal
android.permission.WRITE_SYNC_SETTINGS;;Normal
android.permission.READ_SYNC_STATS;;Normal
android.permission.WRITE_ALLOWLISTED_DEVICE_CONFIG;;Signature
android.permission.READ_WRITE_SYNC_DISABLED_MODE_CONFIG;;Signature
android.permission.SET_APP_SPECIFIC_LOCALECONFIG;;Signature
android.permission.PERSISTENT_ACTIVITY;;Normal
android.permission.GET_PACKAGE_SIZE;;Normal
android.permission.RECEIVE_BOOT_COMPLETED;;Normal
android.permission.BROADCAST_STICKY;;Normal
android.permission.CHANGE_NETWORK_STATE;;Normal
android.permission.CREDENTIAL_MANAGER_SET_ALLOWED_PROVIDERS;;Normal
android.permission.CREDENTIAL_MANAGER_SET_ORIGIN;;Normal
android.permission.CREDENTIAL_MANAGER_QUERY_CANDIDATE_CREDENTIALS;;Normal
android.permission.LAUNCH_CREDENTIAL_SELECTOR;;Signature
android.permission.TEST_INPUT_METHOD;;Signature
android.permission.BIND_VISUAL_QUERY_DETECTION_SERVICE;;Signature
android.permission.SUBSCRIBE_TO_KEYGUARD_LOCKED_STATE;;Signature
android.permission.BIND_FIELD_CLASSIFICATION_SERVICE;;Signature
android.permission.BIND_CREDENTIAL_PROVIDER_SERVICE;;Signature
android.permission.BIND_REMOTE_LOCKSCREEN_VALIDATION_SERVICE;;Signature
android.permission.USE_EXACT_ALARM;;Normal
android.permission.REQUEST_INSTALL_PACKAGES;;Signature
android.permission.REQUEST_DELETE_PACKAGES;;Normal
android.permission.READ_INSTALLED_SESSION_PATHS;;Signature
android.permission.MANAGE_DEFAULT_APPLICATIONS;;Signature
android.permission.REQUEST_OBSERVE_COMPANION_DEVICE_PRESENCE;;Normal
android.permission.DELIVER_COMPANION_MESSAGES;;Normal
android.permission.USE_COMPANION_TRANSPORTS;;Signature
android.permission.WAKEUP_SURFACE_FLINGER;;Signature
android.permission.MODIFY_HDR_CONVERSION_MODE;;Signature
android.permission.REQUEST_IGNORE_BATTERY_OPTIMIZATIONS;;Normal
android.permission.ACCESS_NOTIFICATION_POLICY;;Normal
android.permission.READ_INSTALL_SESSIONS;;Normal
android.permission.FOREGROUND_SERVICE;;Normal
android.permission.FOREGROUND_SERVICE_CAMERA;;Normal
android.permission.FOREGROUND_SERVICE_CONNECTED_DEVICE;;Normal
android.permission.FOREGROUND_SERVICE_DATA_SYNC;;Normal
android.permission.FOREGROUND_SERVICE_LOCATION;;Normal
android.permission.FOREGROUND_SERVICE_MEDIA_PLAYBACK;;Normal
android.permission.FOREGROUND_SERVICE_MEDIA_PROJECTION;;Normal
android.permission.FOREGROUND_SERVICE_MICROPHONE;;Normal
android.permission.FOREGROUND_SERVICE_PHONE_CALL;;Normal
android.permission.FOREGROUND_SERVICE_HEALTH;;Normal
android.permission.FOREGROUND_SERVICE_REMOTE_MESSAGING;;Normal
android.permission.FOREGROUND_SERVICE_SYSTEM_EXEMPTED;;Normal
android.permission.FOREGROUND_SERVICE_FILE_MANAGEMENT;;Normal
android.permission.FOREGROUND_SERVICE_SPECIAL_USE;;Normal
android.permission.MANAGE_CLIPBOARD_ACCESS_NOTIFICATION;;Signature
android.permission.USE_FULL_SCREEN_INTENT;;Normal
android.permission.UPDATE_PACKAGES_WITHOUT_USER_ACTION;;Normal
android.permission.ENFORCE_UPDATE_OWNERSHIP;;Normal
android.permission.MAKE_UID_VISIBLE;;Signature
android.permission.HANDLE_QUERY_PACKAGE_RESTART;;Signature
android.permission.REMAP_MODIFIER_KEYS;;Signature
android.permission.MONITOR_KEYBOARD_BACKLIGHT;;Signature
android.permission.BIND_WEARABLE_SENSING_SERVICE;;Signature
android.permission.RUN_USER_INITIATED_JOBS;;Normal
android.permission.GET_APP_METADATA;;Signature
android.permission.STAGE_HEALTH_CONNECT_REMOTE_DATA;;Signature
android.permission.DELETE_STAGED_HEALTH_CONNECT_REMOTE_DATA;;Signature
android.permission.MIGRATE_HEALTH_CONNECT_DATA;;Signature
android.permission.LOG_FOREGROUND_RESOURCE_USE;;Signature
android.permission.ACCESS_GPU_SERVICE;;Signature
android.permission.GET_ANY_PROVIDER_TYPE;;Signature
android.permission.SYNC_FLAGS;;Signature
android.permission.WRITE_FLAGS;;Signature
android.permission.READ_CONTACTS;android.permission-group.CONTACTS;Dangerous
android.permission.WRITE_CONTACTS;android.permission-group.CONTACTS;Dangerous
android.permission.READ_CALENDAR;android.permission-group.CALENDAR;Dangerous
android.permission.WRITE_CALENDAR;android.permission-group.CALENDAR;Dangerous
android.permission.SEND_SMS;android.permission-group.SMS;Dangerous
android.permission.RECEIVE_SMS;android.permission-group.SMS;Dangerous
android.permission.READ_SMS;android.permission-group.SMS;Dangerous
android.permission.RECEIVE_WAP_PUSH;android.permission-group.SMS;Dangerous
android.permission.RECEIVE_MMS;android.permission-group.SMS;Dangerous
android.permission.READ_CELL_BROADCASTS;android.permission-group.SMS;Dangerous
android.permission.READ_EXTERNAL_STORAGE;android.permission-group.STORAGE;Dangerous
android.permission.READ_MEDIA_AUDIO;android.permission-group.READ_MEDIA_AURAL;Dangerous
android.permission.READ_MEDIA_VIDEO;android.permission-group.READ_MEDIA_VISUAL;Dangerous
android.permission.READ_MEDIA_IMAGES;android.permission-group.READ_MEDIA_VISUAL;Dangerous
android.permission.READ_MEDIA_VISUAL_USER_SELECTED;android.permission-group.READ_MEDIA_VISUAL;Dangerous
android.permission.WRITE_EXTERNAL_STORAGE;android.permission-group.READ_MEDIA_VISUAL;Dangerous
android.permission.ACCESS_MEDIA_LOCATION;android.permission-group.READ_MEDIA_VISUAL;Dangerous
android.permission.ACCESS_FINE_LOCATION;android.permission-group.LOCATION;Dangerous
android.permission.ACCESS_COARSE_LOCATION;android.permission-group.LOCATION;Dangerous
android.permission.ACCESS_BACKGROUND_LOCATION;android.permission-group.LOCATION;Dangerous
android.permission.READ_CALL_LOG;android.permission-group.CALL_LOG;Dangerous
android.permission.WRITE_CALL_LOG;android.permission-group.CALL_LOG;Dangerous
android.permission.PROCESS_OUTGOING_CALLS;android.permission-group.CALL_LOG;Dangerous
android.permission.READ_PHONE_STATE;android.permission-group.PHONE;Dangerous
android.permission.READ_PHONE_NUMBERS;android.permission-group.PHONE;Dangerous
android.permission.CALL_PHONE;android.permission-group.PHONE;Dangerous
com.android.voicemail.permission.ADD_VOICEMAIL;android.permission-group.PHONE;Dangerous
android.permission.USE_SIP;android.permission-group.PHONE;Dangerous
android.permission.ANSWER_PHONE_CALLS;android.permission-group.PHONE;Dangerous
android.permission.ACCEPT_HANDOVER;android.permission-group.PHONE;Dangerous
android.permission.RECORD_AUDIO;android.permission-group.MICROPHONE;Dangerous
android.permission.ACTIVITY_RECOGNITION;android.permission-group.ACTIVITY_RECOGNITION;Dangerous
android.permission.CAMERA;android.permission-group.CAMERA;Dangerous
android.permission.BODY_SENSORS;android.permission-group.SENSORS;Dangerous
android.permission.BODY_SENSORS_BACKGROUND;android.permission-group.SENSORS;Dangerous
android.permission.POST_NOTIFICATIONS;android.permission-group.NOTIFICATIONS;Dangerous
android.permission.BLUETOOTH_SCAN;android.permission-group.NOTIFICATIONS;Dangerous
android.permission.BLUETOOTH_CONNECT;android.permission-group.NOTIFICATIONS;Dangerous
android.permission.BLUETOOTH_ADVERTISE;android.permission-group.NOTIFICATIONS;Dangerous
android.permission.UWB_RANGING;android.permission-group.NOTIFICATIONS;Dangerous
android.permission.NEARBY_WIFI_DEVICES;android.permission-group.NOTIFICATIONS;Dangerous
android.permission.GET_ACCOUNTS;android.permission-group.NOTIFICATIONS;Dangerous
